{
	"info": {
		"_postman_id": "954ba3b9-c606-4f4e-bbb8-485354fae45f",
		"name": "Identity-Server",
		"schema": "https://schema.getpostman.com/json/collection/v2.1.0/collection.json"
	},
	"item": [
		{
			"name": "Authorize",
			"event": [
				{
					"listen": "test",
					"script": {
						"exec": [
							"pm.environment.set(\"internalAccessToken\", pm.response.json().access_token);\r",
							"pm.test(\"Status code is 200\", function () {\r",
							"    pm.response.to.have.status(200);\r",
							"});\r",
							"\r",
							"pm.test(\"Body matches string\", function () {\r",
							"    pm.expect(pm.response.text()).to.include(\"access_token\")\r",
							"});\r",
							"\r",
							"pm.test(\"Validating the expiration time\", function () {\r",
							"var jsonData = pm.response.json();\r",
							"pm.expect(jsonData.expires_in).to.eql(300);\r",
							"});\r",
							"\r",
							"pm.test(\"Validating token_type is Bearer\", function () {\r",
							"var jsonData = pm.response.json();\r",
							"pm.expect(jsonData.token_type).to.eql(\"Bearer\");\r",
							"});\r",
							"\r",
							"\r",
							"\r",
							"\r",
							""
						],
						"type": "text/javascript"
					}
				}
			],
			"request": {
				"method": "POST",
				"header": [
					{
						"key": "Content-Type",
						"name": "Content-Type",
						"value": "application/x-www-form-urlencoded",
						"type": "text"
					}
				],
				"body": {
					"mode": "urlencoded",
					"urlencoded": [
						{
							"key": "grant_type",
							"value": "password",
							"type": "text"
						},
						{
							"key": "username",
							"value": "{{userName}}|{{orgId}}",
							"type": "text"
						},
						{
							"key": "password",
							"value": "{{password}}",
							"type": "text"
						},
						{
							"key": "client_id",
							"value": "{{postmanClient}}",
							"type": "text"
						},
						{
							"key": "client_secret",
							"value": "{{postmanSecret}}",
							"type": "text"
						}
					]
				},
				"url": {
					"raw": "{{idp}}/connect/token",
					"host": [
						"{{idp}}"
					],
					"path": [
						"connect",
						"token"
					]
				}
			},
			"response": []
		}
	]
}